{
  "players": [
      {
          "id": 9,
          "game_id": 3,
          "name": "shiva",
          "score": 12,
          "created_at": "2019-11-20 07:46:54",
          "updated_at": "2019-11-20 07:49:44"
      },
      {
          "id": 10,
          "game_id": 3,
          "name": "shiva",
          "score": null,
          "created_at": "2019-11-20 07:48:58",
          "updated_at": "2019-11-20 07:48:58"
      },
      {
          "id": 11,
          "game_id": 3,
          "name": "maree",
          "score": null,
          "created_at": "2019-11-20 07:51:44",
          "updated_at": "2019-11-20 07:51:44"
      },
      {
          "id": 12,
          "game_id": 3,
          "name": "mtitan",
          "score": null,
          "created_at": "2019-11-20 07:52:57",
          "updated_at": "2019-11-20 07:52:57"
      },
      {
          "id": 13,
          "game_id": 3,
          "name": "ttttttt",
          "score": null,
          "created_at": "2019-11-20 07:53:25",
          "updated_at": "2019-11-20 07:53:25"
      }
  ]
}